{
    "hooks-listen-port": 8888,
    "hooks-listen-host": "0.0.0.0",
    "nick": "Geth",
    "host": "irc.freenode.net",
    "channels": [
        "#cro",
        "#moarvm",
        "#perl6-macros",
        "#raku",
        "#raku-dev"
    ]
}
